{
  "name": "single image openstack instances",
  "author": "Edwin Skidmore",
  "author_email": "edwin@cyverse.org",
  "description": "simple launch of one or more vms",
  "template_type": "openstack_terraform",
  "purpose": "compute",
  "cacao_post_tasks": [
    {
      "type": "ansible",
      "location_type": "cacao_atmosphere_legacy"
    }
  ],
  "parameters": {
    "username": {
      "type": "cacao_username",
      "default": "username",
      "ui_label": "CACAO username",
      "description": "CACAO username"
    },
    "instance_name": {
      "type": "string",
      "ui_label": "Instance name",
      "description": "Instance name"
    },
    "flavor": {
      "type": "cacao_provider_flavor",
      "ui_label": "Flavor",
      "description": "Instance type"
    },
    "project": {
      "type": "cacao_provider_project",
      "ui_label": "Project ID",
      "description": "OpenStack Project ID"
    },
    "keypair": {
      "type": "cacao_provider_key_pair",
      "default": "cacao-ssh-key",
      "ui_label": "Key-pair",
      "description": "Key-pair for instance access"
    },
    "power_state": {
      "type": "string",
      "default": "active",
      "enum": [
        "active",
        "shutoff",
        "suspend",
        "shelved_offloaded"
      ],
      "ui_label": "Power state",
      "description": "Power state"
    },
    "ip_pool": {
      "type": "cacao_provider_external_network",
      "default": "external_network_name",
      "ui_label": "IP pool",
      "description": "IP pool"
    },
    "user_data": {
      "type": "cacao_cloud_init",
      "description": "cloud init script"
    }
  }
}
